…
``` r
# Determining distinct genus-specie pairs! Let's find beautiful fall trees
distinct(vancouver_trees, genus_name, species_name)
```

```         
## # A tibble: 361 × 2
##    genus_name species_name
##    <chr>      <chr>       
##  1 ULMUS      AMERICANA   
##  2 ZELKOVA    SERRATA     
##  3 STYRAX     JAPONICA    
##  4 FRAXINUS   AMERICANA   
##  5 ACER       CAMPESTRE   
##  6 PYRUS      CALLERYANA  
##  7 ACER       PLATANOIDES 
##  8 TILIA      EUCHLORA   X
##  9 HIBISCUS   SYRIACA     
## 10 FRAXINUS   OXYCARPA    
## # ℹ 351 more rows
```
…
