…
Getting an idea of the number of observations for categorical variable
‘concavity_mean’:

``` r
cancer_sample %>%
  group_by(concavity_mean) %>%
  tally()
```

    ## # A tibble: 537 × 2
    ##    concavity_mean     n
    ##             <dbl> <int>
    ##  1       0           13
    ##  2       0.000692     1
    ##  3       0.000974     1
    ##  4       0.00119      1
    ##  5       0.00146      1
    ##  6       0.00149      1
    ##  7       0.00155      1
    ##  8       0.00160      1
    ##  9       0.00160      1
    ## 10       0.00186      1
    ## # ℹ 527 more rows

``` r
# Adding column for categorization of 'concavity_mean' into 4 buckets

(cancer_categ <- cancer_sample %>%
  mutate(concavity_mean_level = case_when(concavity_mean<0.04 ~ "Low",
                                         concavity_mean<0.08 ~ "Normal",
                                         concavity_mean<0.12 ~ "High",
                                         TRUE ~ "Very High")))
```

    ## # A tibble: 569 × 33
    ##          ID diagnosis radius_mean texture_mean perimeter_mean area_mean
    ##       <dbl> <chr>           <dbl>        <dbl>          <dbl>     <dbl>
    ##  1   842302 M                18.0         10.4          123.      1001 
    ##  2   842517 M                20.6         17.8          133.      1326 
    ##  3 84300903 M                19.7         21.2          130       1203 
    ##  4 84348301 M                11.4         20.4           77.6      386.
    ##  5 84358402 M                20.3         14.3          135.      1297 
    ##  6   843786 M                12.4         15.7           82.6      477.
    ##  7   844359 M                18.2         20.0          120.      1040 
    ##  8 84458202 M                13.7         20.8           90.2      578.
    ##  9   844981 M                13           21.8           87.5      520.
    ## 10 84501001 M                12.5         24.0           84.0      476.
    ## # ℹ 559 more rows
    ## # ℹ 27 more variables: smoothness_mean <dbl>, compactness_mean <dbl>,
    ## #   concavity_mean <dbl>, concave_points_mean <dbl>, symmetry_mean <dbl>,
    ## #   fractal_dimension_mean <dbl>, radius_se <dbl>, texture_se <dbl>,
    ## #   perimeter_se <dbl>, area_se <dbl>, smoothness_se <dbl>,
    ## #   compactness_se <dbl>, concavity_se <dbl>, concave_points_se <dbl>,
    ## #   symmetry_se <dbl>, fractal_dimension_se <dbl>, radius_worst <dbl>, …
…
``` r
(cancer_long <- cancer_sample %>%
   pivot_longer(cols     = c(-ID, -diagnosis), 
               names_to  = "feature",
               values_to = "numerical_value"))
```

    ## # A tibble: 17,070 × 4
    ##        ID diagnosis feature                numerical_value
    ##     <dbl> <chr>     <chr>                            <dbl>
    ##  1 842302 M         radius_mean                    18.0   
    ##  2 842302 M         texture_mean                   10.4   
    ##  3 842302 M         perimeter_mean                123.    
    ##  4 842302 M         area_mean                    1001     
    ##  5 842302 M         smoothness_mean                 0.118 
    ##  6 842302 M         compactness_mean                0.278 
    ##  7 842302 M         concavity_mean                  0.300 
    ##  8 842302 M         concave_points_mean             0.147 
    ##  9 842302 M         symmetry_mean                   0.242 
    ## 10 842302 M         fractal_dimension_mean          0.0787
    ## # ℹ 17,060 more rows

Now let us tidy the data again!

``` r
(cancer_sample <- cancer_long %>%
   pivot_wider(id_cols     = c(ID, diagnosis), 
               names_from  = "feature",
               values_from = "numerical_value"))
```

    ## # A tibble: 569 × 32
    ##          ID diagnosis radius_mean texture_mean perimeter_mean area_mean
    ##       <dbl> <chr>           <dbl>        <dbl>          <dbl>     <dbl>
    ##  1   842302 M                18.0         10.4          123.      1001 
    ##  2   842517 M                20.6         17.8          133.      1326 
    ##  3 84300903 M                19.7         21.2          130       1203 
    ##  4 84348301 M                11.4         20.4           77.6      386.
    ##  5 84358402 M                20.3         14.3          135.      1297 
    ##  6   843786 M                12.4         15.7           82.6      477.
    ##  7   844359 M                18.2         20.0          120.      1040 
    ##  8 84458202 M                13.7         20.8           90.2      578.
    ##  9   844981 M                13           21.8           87.5      520.
    ## 10 84501001 M                12.5         24.0           84.0      476.
    ## # ℹ 559 more rows
    ## # ℹ 26 more variables: smoothness_mean <dbl>, compactness_mean <dbl>,
    ## #   concavity_mean <dbl>, concave_points_mean <dbl>, symmetry_mean <dbl>,
    ## #   fractal_dimension_mean <dbl>, radius_se <dbl>, texture_se <dbl>,
    ## #   perimeter_se <dbl>, area_se <dbl>, smoothness_se <dbl>,
    ## #   compactness_se <dbl>, concavity_se <dbl>, concave_points_se <dbl>,
    ## #   symmetry_se <dbl>, fractal_dimension_se <dbl>, radius_worst <dbl>, …
…
**Data set:** As discussed above, I need to drop all of the ten ‘\_se’
cols:

``` r
(cancer_final <- cancer_sample %>%
  select(-radius_se, -texture_se, -perimeter_se, -area_se, -smoothness_se, -compactness_se, -concavity_se, -concave_points_se, -symmetry_se, -fractal_dimension_se) %>%
  arrange(diagnosis) %>%  # Arranging for better organization
  select(-ID) %>%   # Removing original ID column as number is non-consistent format
  mutate(ID = row_number()) %>%  # Adding consistent ID column
  select(ID, everything()))      # Moveing ID column as first col
```

    ## # A tibble: 569 × 22
    ##       ID diagnosis radius_mean texture_mean perimeter_mean area_mean
    ##    <int> <chr>           <dbl>        <dbl>          <dbl>     <dbl>
    ##  1     1 B               13.5          14.4           87.5      566.
    ##  2     2 B               13.1          15.7           85.6      520 
    ##  3     3 B                9.50         12.4           60.3      274.
    ##  4     4 B               13.0          18.4           82.6      524.
    ##  5     5 B                8.20         16.8           51.7      202.
    ##  6     6 B               12.0          14.6           78.0      449.
    ##  7     7 B               13.5          22.3           86.9      561 
    ##  8     8 B               11.8          21.6           74.7      428.
    ##  9     9 B               13.6          16.3           87.2      572.
    ## 10    10 B               11.9          18.2           75.7      438.
    ## # ℹ 559 more rows
    ## # ℹ 16 more variables: smoothness_mean <dbl>, compactness_mean <dbl>,
    ## #   concavity_mean <dbl>, concave_points_mean <dbl>, symmetry_mean <dbl>,
    ## #   fractal_dimension_mean <dbl>, radius_worst <dbl>, texture_worst <dbl>,
    ## #   perimeter_worst <dbl>, area_worst <dbl>, smoothness_worst <dbl>,
    ## #   compactness_worst <dbl>, concavity_worst <dbl>, concave_points_worst <dbl>,
    ## #   symmetry_worst <dbl>, fractal_dimension_worst <dbl>
…
